# 
# Generated by Sweet Home 3D - vie jul 10 21:48:52 COT 2020
# http://www.sweethome3d.com/
# 
mtllib camara.mtl
g ground_1
usemtl ground_1
v 147.5 0.0 103.55922
v 147.5 0.0 117.55922
v 161.5 0.0 117.55922
v 161.5 0.0 103.55922
vn 0.0 1.0 0.0
vn 0.0 0.0 0.0
f 1//1 2//1 3//1
f 1//1 3//1 4//1
g Sphere_1_2
usemtl whiteplastic
v 154.5 6.2055244 106.43113
v 154.5 7.6473193 107.41335
v 155.15637 7.5274897 107.3625
v 154.5 8.604801 108.87451
v 154.5 8.932208 110.59215
v 156.08463 8.642915 110.46939
v 155.71281 8.383388 108.780556
v 154.5 8.579687 112.30477
v 154.5 7.600912 113.751656
v 156.08463 7.31162 113.6289
v 156.21518 8.266561 112.171906
v 154.5 6.1448903 114.71252
v 155.71281 5.923476 114.61856
v 156.74098 7.752851 108.51299
v 155.71281 7.1862464 107.217705
v 157.66924 7.3748465 111.79351
v 157.428 7.8190794 110.119804
v 156.74098 5.29294 114.351
v 157.428 6.487784 113.27931
v 157.428 6.8091874 108.112564
v 156.08463 6.6755385 107.00099
v 158.64081 6.040304 111.22721
v 158.3256 6.586122 109.59661
v 157.428 4.3492756 113.95056
v 158.3256 5.2548275 112.75612
v 156.21518 6.073118 106.74536
v 158.64081 5.1317506 108.97947
v 157.66924 5.696059 107.64022
v 158.64081 3.800456 112.13897
v 158.98198 4.466103 110.55922
v 157.66924 3.2361474 113.478226
v 158.3256 3.677379 108.36232
v 157.428 4.582932 107.16788
v 158.3256 2.346084 111.52183
v 158.64081 2.8919034 109.89123
v 156.08461 5.4706984 106.48973
v 157.428 2.1230202 113.005875
v 156.74098 3.6392684 106.76744
v 155.71281 4.959991 106.27302
v 157.66924 1.5573602 109.32493
v 157.428 2.4444227 107.83913
v 156.74098 1.1793551 112.605446
v 157.428 1.1131271 110.998634
v 156.21518 0.6656482 108.94654
v 156.08461 1.620588 107.48954
v 155.71281 0.54881984 112.33788
v 156.08461 0.2892934 110.64905
v 155.15637 4.6187477 106.12821
v 155.71281 3.0087323 106.49988
v 154.5 4.4989185 106.07736
v 154.5 1.3312955 107.36678
v 154.5 2.787317 106.40592
v 154.5 0 110.52629
v 154.5 0.35252026 108.81367
v 154.5 0.32740515 112.24393
v 152.91537 0.2892934 110.64905
v 152.78482 0.6656492 108.94654
v 152.25902 5.29294 114.351
v 151.572 4.3492765 113.95057
v 151.6452 4.3495083 113.87218
v 152.31503 5.2695847 114.2626
v 153.28719 3.0087333 106.49988
v 153.84363 4.6187477 106.12821
v 152.91537 1.6205889 107.48954
v 153.28719 0.5488208 112.33788
v 152.25902 1.1793575 112.605446
v 153.3175 0.6440474 112.299805
v 152.31503 1.2588229 112.56068
v 152.25902 3.6392694 106.76744
v 153.28719 4.959991 106.27302
v 151.33076 1.5573621 109.32493
v 151.572 2.4444246 107.83913
v 151.572 1.11313 110.998634
v 157.3548 2.1788993 112.9511
v 156.68497 1.2588221 112.56068
v 153.28719 5.923476 114.61856
v 153.3175 5.88436 114.523476
v 151.572 2.1230211 113.00588
v 150.6744 2.346086 111.52183
v 154.5 0.42816594 112.2082
v 152.91539 5.470699 106.48973
v 150.6744 3.6773813 108.36232
v 151.572 4.582933 107.16788
v 150.35919 2.8919053 109.89123
v 156.68497 5.2695847 114.2626
v 157.3548 4.3495073 113.87218
v 152.78482 6.073119 106.74536
v 150.35919 5.1317525 108.97947
v 151.33076 5.696061 107.64022
v 150.35919 3.800458 112.13898
v 150.01802 4.466105 110.55922
v 151.33076 3.2361493 113.478226
v 151.40999 3.2642043 113.41164
v 157.59001 3.2642033 113.41164
v 151.6452 2.1789012 112.9511
v 151.572 6.8091884 108.112564
v 152.91539 6.6755395 107.00099
v 150.35919 6.040306 111.22722
v 150.6744 6.586124 109.59661
v 150.6744 5.2548294 112.75612
v 155.6825 0.6440474 112.299805
v 152.25902 7.752852 108.51299
v 153.28719 7.1862464 107.217705
v 151.33076 7.3748484 111.79352
v 151.572 7.8190804 110.119804
v 151.572 6.487785 113.27931
v 154.5 6.1002407 114.61508
v 155.6825 5.88436 114.523476
v 153.84363 7.5274897 107.3625
v 152.91539 8.642915 110.46939
v 153.28719 8.383388 108.780556
v 152.91539 7.3116193 113.6289
v 152.78482 8.266561 112.171906
vt 0.0 0.0 0
vn 0.0 0.38826266 -0.9215488
vn 0.0 0.7264912 -0.6871757
vn 0.15447594 0.69818914 -0.6990487
vn 0.0 0.93240416 -0.36141732
vn 0.0 0.9998662 0.016358571
vn 0.3559183 0.9344507 -0.011134986
vn 0.2758645 0.8817424 -0.38266048
vn 0.0 0.9205652 0.3905889
vn 0.0 0.7070121 0.7072015
vn 0.35532472 0.6418873 0.6795035
vn 0.3836862 0.85009456 0.36072722
vn 0.0 0.54807705 0.8364278
vn 0.31847128 0.48979124 0.8115913
vn 0.5092838 0.7377281 -0.443156
vn 0.28539237 0.6175739 -0.73290765
vn 0.70814496 0.6499701 0.275807
vn 0.65700185 0.74854827 -0.08957749
vn 0.58813196 0.32408527 0.74099225
vn 0.65621024 0.45684516 0.6005669
vn 0.6647725 0.52278686 -0.5336398
vn 0.3727326 0.49719167 -0.7834992
vn 0.92428064 0.35140583 0.14906138
vn 0.8573853 0.47131574 -0.20676525
vn 0.7682153 0.07643197 0.6356126
vn 0.8568049 0.18038596 0.48305917
vn 0.4032816 0.3553074 -0.8432797
vn 0.9273553 0.14529626 -0.34482056
vn 0.7190539 0.26984394 -0.64042616
vn 0.9273553 -0.14529626 0.34482056
vn 1.0 0.0 0.0
vn 0.83159953 -0.21559153 0.51182276
vn 0.8568049 -0.18038596 -0.48305917
vn 0.66412234 0.017239777 -0.7474251
vn 0.8573853 -0.47131574 0.20676525
vn 0.92428064 -0.35140583 -0.14906138
vn 0.37245718 0.21357962 -0.90313864
vn 0.768897 -0.5080703 0.38815188
vn 0.50839114 -0.1967415 -0.83835024
vn 0.28501347 0.09357442 -0.9539451
vn 0.70814496 -0.6499701 -0.275807
vn 0.65621024 -0.45684516 -0.6005669
vn 0.5891007 -0.7567789 0.2832774
vn 0.65700185 -0.74854827 0.08957749
vn 0.3836862 -0.85009456 -0.36072722
vn 0.35532472 -0.6418873 -0.6795035
vn 0.31915742 -0.92342305 0.21313938
vn 0.3559183 -0.9344507 0.011134986
vn 0.15420753 0.013353557 -0.9879483
vn 0.27521476 -0.33994326 -0.89927495
vn 0.0 -0.014747855 -0.9998912
vn 0.0 -0.7070121 -0.7072015
vn 0.0 -0.3901571 -0.9207483
vn 0.0 -0.9998662 -0.016358571
vn 0.0 -0.9205652 -0.3905889
vn 0.0 -0.982066 0.188537
vn -0.3559183 -0.9344507 0.011134986
vn -0.3836862 -0.85009456 -0.36072722
vn 0.477493 -0.7255028 0.4956269
vn 0.62337136 -0.52393407 0.580432
vn -0.27521476 -0.33994326 -0.89927495
vn -0.15420753 0.013353557 -0.9879483
vn -0.35532472 -0.6418873 -0.6795035
vn -0.31915742 -0.92342305 0.21313938
vn 0.47663942 0.15078072 0.86607164
vn 0.25797457 0.28497756 0.9231668
vn -0.50839114 -0.1967415 -0.83835024
vn -0.28501347 0.09357442 -0.9539451
vn -0.70814496 -0.6499701 -0.275807
vn -0.65621024 -0.45684516 -0.6005669
vn -0.5891007 -0.7567789 0.2832774
vn -0.65700185 -0.74854827 0.08957749
vn -0.47663942 0.15078072 0.86607164
vn -0.6227935 -0.049923398 0.7807919
vn 0.2585714 -0.8605073 0.43893972
vn -0.768897 -0.5080703 0.38815188
vn -0.8573853 -0.47131574 0.20676525
vn 0.0 0.33217597 0.9432174
vn -0.37245718 0.21357962 -0.90313864
vn -0.8568049 -0.18038596 -0.48305917
vn -0.66412234 0.017239777 -0.7474251
vn -0.92428064 -0.35140583 -0.14906138
vn -0.62337136 -0.52393407 0.580432
vn -0.477493 -0.7255028 0.4956269
vn -0.4032816 0.3553074 -0.8432797
vn -0.9273553 0.14529626 -0.34482056
vn -0.7190539 0.26984394 -0.64042616
vn -0.9273553 -0.14529626 0.34482056
vn -1.0 0.0 0.0
vn 0.6742992 -0.2867736 0.68050104
vn -0.83159953 -0.21559153 0.51182276
vn -0.6742992 -0.2867736 0.68050104
vn 0.6227935 -0.049923398 0.7807919
vn -0.6647725 0.52278686 -0.5336398
vn -0.3727326 0.49719167 -0.7834992
vn -0.92428064 0.35140583 0.14906138
vn -0.8573853 0.47131574 -0.20676525
vn -0.7682153 0.07643197 0.6356126
vn -0.8568049 0.18038596 0.48305917
vn -0.25797457 0.28497756 0.9231668
vn -0.5092838 0.7377281 -0.443156
vn -0.28539237 0.6175739 -0.73290765
vn -0.70814496 0.6499701 0.275807
vn -0.65700185 0.74854827 -0.08957749
vn -0.58813196 0.32408527 0.74099225
vn -0.65621024 0.45684516 0.6005669
vn -0.2585714 -0.8605073 0.43893972
vn 0.0 -0.9079724 0.41903004
vn -0.15447594 0.69818914 -0.6990487
vn -0.3559183 0.9344507 -0.011134986
vn -0.2758645 0.8817424 -0.38266048
vn -0.35532472 0.6418873 0.6795035
vn -0.3836862 0.85009456 0.36072722
vn -0.31847128 0.48979124 0.8115913
f 5/1/3 6/1/4 7/1/5
f 8/1/6 9/1/7 10/1/8
f 8/1/6 10/1/8 11/1/9
f 12/1/10 13/1/11 14/1/12
f 12/1/10 14/1/12 15/1/13
f 6/1/4 8/1/6 11/1/9
f 6/1/4 11/1/9 7/1/5
f 9/1/7 12/1/10 15/1/13
f 9/1/7 15/1/13 10/1/8
f 13/1/11 16/1/14 17/1/15
f 13/1/11 17/1/15 14/1/12
f 7/1/5 11/1/9 18/1/16
f 7/1/5 18/1/16 19/1/17
f 10/1/8 15/1/13 20/1/18
f 10/1/8 20/1/18 21/1/19
f 14/1/12 17/1/15 22/1/20
f 14/1/12 22/1/20 23/1/21
f 5/1/3 7/1/5 19/1/17
f 11/1/9 10/1/8 21/1/19
f 11/1/9 21/1/19 18/1/16
f 15/1/13 14/1/12 23/1/21
f 15/1/13 23/1/21 20/1/18
f 19/1/17 18/1/16 24/1/22
f 19/1/17 24/1/22 25/1/23
f 21/1/19 20/1/18 26/1/24
f 21/1/19 26/1/24 27/1/25
f 23/1/21 22/1/20 28/1/26
f 23/1/21 28/1/26 29/1/27
f 5/1/3 19/1/17 25/1/23
f 18/1/16 21/1/19 27/1/25
f 18/1/16 27/1/25 24/1/22
f 20/1/18 23/1/21 29/1/27
f 20/1/18 29/1/27 26/1/24
f 5/1/3 25/1/23 30/1/28
f 24/1/22 27/1/25 31/1/29
f 24/1/22 31/1/29 32/1/30
f 26/1/24 29/1/27 33/1/31
f 26/1/24 33/1/31 34/1/32
f 25/1/23 24/1/22 32/1/30
f 25/1/23 32/1/30 30/1/28
f 27/1/25 26/1/24 34/1/32
f 27/1/25 34/1/32 31/1/29
f 29/1/27 28/1/26 35/1/33
f 29/1/27 35/1/33 33/1/31
f 32/1/30 31/1/29 36/1/34
f 32/1/30 36/1/34 37/1/35
f 34/1/32 33/1/31 38/1/36
f 34/1/32 38/1/36 39/1/37
f 30/1/28 32/1/30 37/1/35
f 30/1/28 37/1/35 40/1/38
f 31/1/29 34/1/32 39/1/37
f 31/1/29 39/1/37 36/1/34
f 33/1/31 35/1/33 41/1/39
f 33/1/31 41/1/39 38/1/36
f 5/1/3 30/1/28 40/1/38
f 40/1/38 37/1/35 42/1/40
f 40/1/38 42/1/40 43/1/41
f 36/1/34 39/1/37 44/1/42
f 36/1/34 44/1/42 45/1/43
f 38/1/36 41/1/39 46/1/44
f 38/1/36 46/1/44 47/1/45
f 5/1/3 40/1/38 43/1/41
f 37/1/35 36/1/34 45/1/43
f 37/1/35 45/1/43 42/1/40
f 39/1/37 38/1/36 47/1/45
f 39/1/37 47/1/45 44/1/42
f 45/1/43 44/1/42 48/1/46
f 45/1/43 48/1/46 49/1/47
f 47/1/45 46/1/44 50/1/48
f 47/1/45 50/1/48 51/1/49
f 5/1/3 43/1/41 52/1/50
f 42/1/40 45/1/43 49/1/47
f 42/1/40 49/1/47 53/1/51
f 44/1/42 47/1/45 51/1/49
f 44/1/42 51/1/49 48/1/46
f 43/1/41 42/1/40 53/1/51
f 43/1/41 53/1/51 52/1/50
f 5/1/3 52/1/50 54/1/52
f 53/1/51 49/1/47 55/1/53
f 53/1/51 55/1/53 56/1/54
f 48/1/46 51/1/49 57/1/55
f 48/1/46 57/1/55 58/1/56
f 52/1/50 53/1/51 56/1/54
f 52/1/50 56/1/54 54/1/52
f 49/1/47 48/1/46 58/1/56
f 49/1/47 58/1/56 55/1/53
f 51/1/49 50/1/48 59/1/57
f 51/1/49 59/1/57 57/1/55
f 58/1/56 57/1/55 60/1/58
f 58/1/56 60/1/58 61/1/59
f 62/1/60 63/1/61 64/1/61
f 62/1/60 64/1/61 65/1/60
f 54/1/52 56/1/54 66/1/62
f 54/1/52 66/1/62 67/1/63
f 55/1/53 58/1/56 61/1/59
f 55/1/53 61/1/59 68/1/64
f 57/1/55 59/1/57 69/1/65
f 57/1/55 69/1/65 60/1/58
f 70/1/66 69/1/67 71/1/67
f 70/1/66 71/1/67 72/1/66
f 5/1/3 54/1/52 67/1/63
f 56/1/54 55/1/53 68/1/64
f 56/1/54 68/1/64 66/1/62
f 67/1/63 66/1/62 73/1/68
f 67/1/63 73/1/68 74/1/69
f 68/1/64 61/1/59 75/1/70
f 68/1/64 75/1/70 76/1/71
f 60/1/58 69/1/65 70/1/72
f 60/1/58 70/1/72 77/1/73
f 46/1/74 41/1/75 78/1/75
f 46/1/74 78/1/75 79/1/74
f 5/1/3 67/1/63 74/1/69
f 66/1/62 68/1/64 76/1/71
f 66/1/62 76/1/71 73/1/68
f 61/1/59 60/1/58 77/1/73
f 61/1/59 77/1/73 75/1/70
f 80/1/76 62/1/60 65/1/60
f 80/1/76 65/1/60 81/1/76
f 77/1/73 70/1/72 82/1/77
f 77/1/73 82/1/77 83/1/78
f 69/1/67 59/1/79 84/1/79
f 69/1/67 84/1/79 71/1/67
f 5/1/3 74/1/69 85/1/80
f 73/1/68 76/1/71 86/1/81
f 73/1/68 86/1/81 87/1/82
f 75/1/70 77/1/73 83/1/78
f 75/1/70 83/1/78 88/1/83
f 28/1/84 22/1/85 89/1/85
f 28/1/84 89/1/85 90/1/84
f 74/1/69 73/1/68 87/1/82
f 74/1/69 87/1/82 85/1/80
f 76/1/71 75/1/70 88/1/83
f 76/1/71 88/1/83 86/1/81
f 5/1/3 85/1/80 91/1/86
f 87/1/82 86/1/81 92/1/87
f 87/1/82 92/1/87 93/1/88
f 88/1/83 83/1/78 94/1/89
f 88/1/83 94/1/89 95/1/90
f 63/1/61 96/1/91 97/1/91
f 63/1/61 97/1/91 64/1/61
f 85/1/80 87/1/82 93/1/88
f 85/1/80 93/1/88 91/1/86
f 86/1/81 88/1/83 95/1/90
f 86/1/81 95/1/90 92/1/87
f 83/1/78 82/1/77 96/1/92
f 83/1/78 96/1/92 94/1/89
f 35/1/93 28/1/84 90/1/84
f 35/1/93 90/1/84 98/1/93
f 96/1/91 82/1/94 99/1/94
f 96/1/91 99/1/94 97/1/91
f 91/1/86 93/1/88 100/1/95
f 91/1/86 100/1/95 101/1/96
f 92/1/87 95/1/90 102/1/97
f 92/1/87 102/1/97 103/1/98
f 94/1/89 96/1/92 63/1/99
f 94/1/89 63/1/99 104/1/100
f 59/1/79 50/1/101 105/1/101
f 59/1/79 105/1/101 84/1/79
f 5/1/3 91/1/86 101/1/96
f 93/1/88 92/1/87 103/1/98
f 93/1/88 103/1/98 100/1/95
f 95/1/90 94/1/89 104/1/100
f 95/1/90 104/1/100 102/1/97
f 101/1/96 100/1/95 106/1/102
f 101/1/96 106/1/102 107/1/103
f 103/1/98 102/1/97 108/1/104
f 103/1/98 108/1/104 109/1/105
f 104/1/100 63/1/99 62/1/106
f 104/1/100 62/1/106 110/1/107
f 50/1/101 46/1/74 79/1/74
f 50/1/101 79/1/74 105/1/101
f 5/1/3 101/1/96 107/1/103
f 100/1/95 103/1/98 109/1/105
f 100/1/95 109/1/105 106/1/102
f 102/1/97 104/1/100 110/1/107
f 102/1/97 110/1/107 108/1/104
f 17/1/108 16/1/109 111/1/109
f 17/1/108 111/1/109 112/1/108
f 22/1/85 17/1/108 112/1/108
f 22/1/85 112/1/108 89/1/85
f 5/1/3 107/1/103 113/1/110
f 106/1/102 109/1/105 114/1/111
f 106/1/102 114/1/111 115/1/112
f 108/1/104 110/1/107 116/1/113
f 108/1/104 116/1/113 117/1/114
f 82/1/94 70/1/66 72/1/66
f 82/1/94 72/1/66 99/1/94
f 107/1/103 106/1/102 115/1/112
f 107/1/103 115/1/112 113/1/110
f 109/1/105 108/1/104 117/1/114
f 109/1/105 117/1/114 114/1/111
f 110/1/107 62/1/106 80/1/115
f 110/1/107 80/1/115 116/1/113
f 115/1/112 114/1/111 9/1/7
f 115/1/112 9/1/7 8/1/6
f 117/1/114 116/1/113 13/1/11
f 117/1/114 13/1/11 12/1/10
f 16/1/109 80/1/76 81/1/76
f 16/1/109 81/1/76 111/1/109
f 113/1/110 115/1/112 8/1/6
f 113/1/110 8/1/6 6/1/4
f 114/1/111 117/1/114 12/1/10
f 114/1/111 12/1/10 9/1/7
f 116/1/113 80/1/115 16/1/14
f 116/1/113 16/1/14 13/1/11
f 41/1/75 35/1/93 98/1/93
f 41/1/75 98/1/93 78/1/75
f 5/1/3 113/1/110 6/1/4
g Sphere112_2_3
usemtl eyetexture
v 154.5 4.4314203 114.935425
v 155.13997 4.3145876 114.88585
v 154.5 2.767472 114.59051
v 155.6825 3.981874 114.74467
v 156.04501 3.483931 114.53337
v 156.1723 2.896569 114.28413
v 156.04501 2.3092074 114.03489
v 155.6825 1.8112645 113.82359
v 155.13997 1.4785509 113.68241
v 154.5 1.3617172 113.63283
v 153.86003 1.4785509 113.68241
v 153.3175 1.8112655 113.82359
v 152.95499 2.3092074 114.03489
v 152.8277 2.89657 114.28413
v 152.95499 3.483932 114.53337
v 153.3175 3.981874 114.74467
v 153.86003 4.3145876 114.88585
vt 0.5 0.994831 0
vt 0.5 0.767801 0
vt 0.602483 0.747415 0
vt 0.689364 0.957164 0
vt 0.5 0.5 0
vt 0.689364 0.689364 0
vt 0.849899 0.849898 0
vt 0.747416 0.602483 0
vt 0.957164 0.689364 0
vt 0.767801 0.5 0
vt 0.994831 0.5 0
vt 0.747416 0.397517 0
vt 0.957164 0.310636 0
vt 0.689364 0.310636 0
vt 0.849898 0.150102 0
vt 0.602483 0.252585 0
vt 0.689363 0.042836 0
vt 0.5 0.232199 0
vt 0.5 0.005169 0
vt 0.397517 0.252585 0
vt 0.310636 0.042836 0
vt 0.310636 0.310637 0
vt 0.150101 0.150102 0
vt 0.252584 0.397517 0
vt 0.042836 0.310637 0
vt 0.232199 0.5 0
vt 0.005169 0.5 0
vt 0.252584 0.602483 0
vt 0.042836 0.689364 0
vt 0.310636 0.689364 0
vt 0.150102 0.849898 0
vt 0.397517 0.747415 0
vt 0.310637 0.957164 0
vn 0.0 0.18726066 0.9823103
vn 0.0 0.014747855 0.9998912
vn 0.15420753 -0.013353557 0.9879483
vn 0.21262223 0.1483922 0.96580094
vn 0.0 -0.38826266 0.9215488
vn 0.28501347 -0.09357442 0.9539451
vn 0.3928159 0.03786798 0.91883713
vn 0.37245718 -0.21357962 0.90313864
vn 0.513334 -0.12755859 0.8486561
vn 0.4032816 -0.3553074 0.8432797
vn 0.55580795 -0.32278278 0.76608664
vn 0.3727326 -0.49719167 0.7834992
vn 0.5137997 -0.5182779 0.6836649
vn 0.28539237 -0.6175739 0.73290765
vn 0.39347637 -0.6843669 0.61385524
vn 0.15447594 -0.69818914 0.6990487
vn 0.21307348 -0.7955682 0.5671604
vn 0.0 -0.7264912 0.6871757
vn 0.0 -0.8346518 0.550778
vn -0.15447594 -0.69818914 0.6990487
vn -0.21307348 -0.7955682 0.5671604
vn -0.28539237 -0.6175739 0.73290765
vn -0.39347637 -0.6843669 0.61385524
vn -0.3727326 -0.49719167 0.7834992
vn -0.5137997 -0.5182779 0.6836649
vn -0.4032816 -0.3553074 0.8432797
vn -0.55580795 -0.32278278 0.76608664
vn -0.37245718 -0.21357962 0.90313864
vn -0.513334 -0.12755859 0.8486561
vn -0.28501347 -0.09357442 0.9539451
vn -0.3928159 0.03786798 0.91883713
vn -0.15420753 -0.013353557 0.9879483
vn -0.21262223 0.1483922 0.96580094
f 111/2/116 118/3/117 119/4/118
f 111/2/116 119/4/118 112/5/119
f 118/3/117 120/6/120 119/4/118
f 112/5/119 119/4/118 121/7/121
f 112/5/119 121/7/121 89/8/122
f 119/4/118 120/6/120 121/7/121
f 121/7/121 120/6/120 122/9/123
f 89/8/122 121/7/121 122/9/123
f 89/8/122 122/9/123 90/10/124
f 122/9/123 120/6/120 123/11/125
f 90/10/124 122/9/123 123/11/125
f 90/10/124 123/11/125 98/12/126
f 98/12/126 123/11/125 124/13/127
f 98/12/126 124/13/127 78/14/128
f 123/11/125 120/6/120 124/13/127
f 124/13/127 120/6/120 125/15/129
f 78/14/128 124/13/127 125/15/129
f 78/14/128 125/15/129 79/16/130
f 125/15/129 120/6/120 126/17/131
f 79/16/130 125/15/129 126/17/131
f 79/16/130 126/17/131 105/18/132
f 105/18/132 126/17/131 127/19/133
f 105/18/132 127/19/133 84/20/134
f 126/17/131 120/6/120 127/19/133
f 84/20/134 127/19/133 128/21/135
f 84/20/134 128/21/135 71/22/136
f 127/19/133 120/6/120 128/21/135
f 128/21/135 120/6/120 129/23/137
f 71/22/136 128/21/135 129/23/137
f 71/22/136 129/23/137 72/24/138
f 129/23/137 120/6/120 130/25/139
f 72/24/138 129/23/137 130/25/139
f 72/24/138 130/25/139 99/26/140
f 99/26/140 130/25/139 131/27/141
f 99/26/140 131/27/141 97/28/142
f 130/25/139 120/6/120 131/27/141
f 97/28/142 131/27/141 132/29/143
f 97/28/142 132/29/143 64/30/144
f 131/27/141 120/6/120 132/29/143
f 132/29/143 120/6/120 133/31/145
f 64/30/144 132/29/143 133/31/145
f 64/30/144 133/31/145 65/32/146
f 133/31/145 120/6/120 134/33/147
f 65/32/146 133/31/145 134/33/147
f 65/32/146 134/33/147 81/34/148
f 81/34/148 134/33/147 118/3/117
f 81/34/148 118/3/117 111/2/116
f 134/33/147 120/6/120 118/3/117
g Circle_3_4
usemtl whiteplastic
v 157.17879 11.7 117.026375
v 154.5 11.7 117.55922
v 154.5 10.123147 117.42979
v 157.12926 10.123147 116.9068
v 159.44975 11.7 115.508965
v 159.35823 10.123147 115.41744
v 160.96716 11.7 113.238
v 160.84758 10.123147 113.18847
v 160.96716 11.7 107.88043
v 161.5 11.7 110.55922
v 161.37057 10.123147 110.55922
v 160.84758 10.123147 107.92997
v 159.44975 11.7 105.609474
v 159.35823 10.123147 105.701
v 157.17879 11.7 104.092064
v 157.12926 10.123147 104.21164
v 154.5 11.7 103.55922
v 154.5 10.123147 103.68865
v 156.62833 9.542528 105.42098
v 154.5 9.542528 104.99763
v 154.5 9.542528 116.12081
v 156.62833 9.542528 115.69746
v 158.43263 9.542528 114.49185
v 159.63824 9.542528 112.687546
v 160.06158 9.542528 110.55922
v 159.63824 9.542528 108.43089
v 158.43263 9.542528 106.62658
v 159.53412 9.542528 112.64442
v 159.94888 9.542528 110.55922
v 154.5 4.6856985 105.4823
v 154.5 2.6696563 105.97505
v 152.74571 2.6696563 106.324005
v 152.55714 4.6856985 105.86876
v 159.53412 9.542528 108.47402
v 158.35295 9.542528 106.706276
v 156.5852 9.542528 105.5251
v 149.64177 10.123147 115.41744
v 150.56737 9.542528 114.49185
v 152.37167 9.542528 115.69746
v 151.87074 10.123147 116.9068
v 154.5 9.542528 105.11034
v 154.5 9.542528 116.0081
v 156.5852 9.542528 115.59333
v 158.35295 9.542528 114.41216
v 156.55989 7.6486697 115.53225
v 158.3062 7.6486697 114.36541
v 159.47304 7.6486697 112.61911
v 159.88277 7.6486697 110.55922
v 159.47302 7.6486697 108.49932
v 158.3062 7.6486697 106.75303
v 156.55989 7.6486697 105.58619
v 149.52696 7.6486697 112.61911
v 149.65378 6.1671834 112.56659
v 150.79086 6.1671834 114.26836
v 150.6938 7.6486697 114.36541
v 154.5 7.6486697 105.17645
v 154.5 6.1671834 105.313705
v 152.49263 6.1671834 105.713
v 152.44011 7.6486697 105.58619
v 152.45322 7.289564 115.49225
v 152.44011 7.6486697 115.53225
v 151.65105 6.7677355 114.908745
v 151.15088 6.1671834 114.50892
v 154.5 7.6486697 115.941986
v 156.50737 6.1671834 105.713
v 156.44286 4.6856985 105.86876
v 150.91008 4.6856985 106.9693
v 151.2585 2.6696563 107.317726
v 150.26479 2.6696563 108.80493
v 149.80954 4.6856985 108.61636
v 151.87074 10.123147 104.21164
v 151.82121 11.7 104.092064
v 158.20914 6.1671834 114.26836
v 157.84912 6.1671834 114.50892
v 158.17719 5.7700944 114.236404
v 158.49841 4.6856985 113.53779
v 159.19046 4.6856985 112.50207
v 159.34622 6.1671834 112.56659
v 159.34622 6.1671834 108.55185
v 159.74551 6.1671834 110.55922
v 159.57692 4.6856985 110.55922
v 159.19046 4.6856985 108.61636
v 148.15242 10.123147 107.92997
v 149.36176 9.542528 108.43089
v 148.93842 9.542528 110.55922
v 147.62943 10.123147 110.55922
v 158.20914 6.1671834 106.85008
v 158.08992 4.6856985 106.9693
v 150.50597 3.428726 113.00199
v 150.50159 4.6856985 113.53779
v 149.80954 4.6856985 112.50207
v 150.24286 2.750772 112.3276
v 150.37701 2.944354 112.6
v 149.05112 9.542528 110.55922
v 149.46588 9.542528 112.64442
v 149.36176 9.542528 112.687546
v 152.4148 9.542528 105.5251
v 150.56737 9.542528 106.62658
v 150.64705 9.542528 106.706276
v 149.46588 9.542528 108.47402
v 150.6938 7.6486697 106.75303
v 149.52698 7.6486697 108.49932
v 149.55025 11.7 105.609474
v 149.64177 10.123147 105.701
v 148.03284 11.7 107.88043
v 149.11723 7.6486697 110.55922
v 150.64705 9.542528 114.41216
v 152.4148 9.542528 115.59333
v 149.42308 4.6856985 110.55922
v 149.91583 2.6696563 110.55922
v 150.2017 2.6696563 111.99637
v 149.25449 6.1671834 110.55922
v 151.82121 11.7 117.026375
v 148.03284 11.7 113.238
v 148.15242 10.123147 113.18847
v 149.55025 11.7 115.508965
v 152.37167 9.542528 105.42098
v 150.82281 5.7700944 114.236404
v 149.65378 6.1671834 108.55185
v 147.5 11.7 110.55922
v 150.79086 6.1671834 106.85008
v 158.7983 2.6696563 111.99637
v 159.08417 2.6696563 110.55922
v 158.75714 2.750772 112.3276
v 158.73521 2.6696563 108.80493
v 158.62299 2.944354 112.6
v 158.49403 3.428726 113.00199
v 153.0442 7.4336686 115.63249
v 156.25429 2.6696563 106.324005
v 157.7415 2.6696563 107.317726
v 157.34895 6.7677355 114.908745
v 156.54678 7.289564 115.49225
v 155.9558 7.4336686 115.63249
v 157.07571 4.0432196 112.27634
v 157.15887 3.7308517 112.0171
v 153.18005 6.53304 113.88228
v 153.56117 6.6259713 113.972725
v 152.34018 5.809227 113.24814
v 152.66273 6.196517 113.50598
v 157.24539 3.6060138 111.84143
v 156.33727 6.196517 113.50598
v 156.65982 5.809227 113.24814
v 157.27194 3.553701 111.62782
v 151.92429 4.0432196 112.27634
v 151.92146 4.85383 112.62187
v 151.76874 3.553701 109.569695
v 151.54372 3.553701 110.70101
v 152.12862 5.5531473 113.072395
v 156.59041 3.553701 108.6106
v 155.63132 3.553701 107.96976
v 154.5 3.553701 107.74473
v 153.36868 3.553701 107.96976
v 157.45628 3.553701 110.70101
v 152.40959 3.553701 108.6106
v 155.43883 6.6259713 113.972725
v 155.81995 6.53304 113.88228
v 151.72806 3.553701 111.62782
v 151.75461 3.6060138 111.84143
v 156.87138 5.5531473 113.072395
v 157.07854 4.85383 112.62187
v 151.84113 3.7308517 112.0171
v 157.23126 3.553701 109.569695
v 154.5 6.7646246 114.17232
vn 0.38141254 -0.08121624 0.92083025
vn 0.0 -0.0812214 0.9966961
vn 0.70477057 -0.08122171 0.70477057
vn 0.92083025 -0.08121624 0.38141254
vn 0.92083025 -0.08121624 -0.38141254
vn 0.9966961 -0.0812214 0.0
vn 0.70477057 -0.08122171 -0.70477057
vn 0.38141254 -0.08121624 -0.92083025
vn 0.0 -0.0812214 -0.9966961
vn 0.0 -0.91303474 -0.40788183
vn 0.15605554 -0.91305447 -0.37679994
vn 0.08919876 -0.97243875 -0.21542153
vn 0.0 -0.9724336 -0.23317978
vn 0.15605554 -0.91305447 0.37679994
vn 0.0 -0.91303474 0.40788183
vn 0.0 -0.9724336 0.23317978
vn 0.08919876 -0.97243875 0.21542153
vn 0.28834882 -0.9130771 0.28834882
vn 0.16485299 -0.97244376 0.16485299
vn 0.37679994 -0.91305447 0.15605554
vn 0.21542153 -0.97243875 0.08919876
vn 0.37679994 -0.91305447 -0.15605554
vn 0.40788183 -0.91303474 0.0
vn 0.23317978 -0.9724336 0.0
vn 0.21542153 -0.97243875 -0.08919876
vn 0.28834882 -0.9130771 -0.28834882
vn 0.16485299 -0.97244376 -0.16485299
vn 0.0 -1.0 0.0
vn 0.0 -0.17310764 -0.9849029
vn 0.0 -0.2358164 -0.9717976
vn -0.37189153 -0.2358265 -0.897821
vn -0.37686136 -0.17311771 -0.90994817
vn -0.28834882 -0.9130771 0.28834882
vn -0.16485299 -0.97244376 0.16485299
vn -0.08919876 -0.97243875 0.21542153
vn -0.15605554 -0.91305447 0.37679994
vn 0.70668155 -0.034676787 0.70668155
vn 0.38241622 -0.034679167 0.9233392
vn 0.38169008 -0.06536775 0.92197603
vn 0.70538527 -0.06337516 0.70598525
vn 0.9233392 -0.034679167 0.38241622
vn 0.922053 -0.06288185 0.38192195
vn 0.9233392 -0.034679167 -0.38241622
vn 0.9993986 -0.034677647 0.0
vn 0.9980211 -0.06287957 0.0
vn 0.922053 -0.06288185 -0.38192195
vn 0.70668155 -0.034676787 -0.70668155
vn 0.7057076 -0.062878914 -0.7057076
vn 0.38241622 -0.034679167 -0.9233392
vn 0.38192195 -0.06288185 -0.922053
vn -0.922053 -0.06288185 0.38192195
vn -0.919062 -0.10184769 0.38072568
vn -0.7030942 -0.10233821 0.7036941
vn -0.70538527 -0.06337516 0.70598525
vn 0.0 -0.034677647 -0.9993986
vn 0.0 -0.06287957 -0.9980211
vn 0.0 -0.1018409 -0.99480075
vn -0.38072568 -0.10184769 -0.919062
vn -0.38192195 -0.06288185 -0.922053
vn -0.42009616 -0.09596068 0.90239173
vn -0.38169008 -0.06536775 0.92197603
vn -0.5518052 -0.09177717 0.8289077
vn -0.5519217 -0.09616463 0.8283326
vn 0.0 -0.034677647 0.9993986
vn 0.0 -0.0401581 0.9991934
vn 0.38072568 -0.10184769 -0.919062
vn 0.37686136 -0.17311771 -0.90994817
vn -0.6964298 -0.1731218 -0.6964298
vn -0.68716323 -0.2358245 -0.68716323
vn -0.897821 -0.2358265 -0.37189153
vn -0.90994817 -0.17311771 -0.37686136
vn -0.38141254 -0.08121624 -0.92083025
vn 0.7030942 -0.10233821 0.7036941
vn 0.5519217 -0.09616463 0.8283326
vn 0.7696868 -0.11171861 0.62857085
vn 0.82076424 -0.15426804 0.55004305
vn 0.90980643 -0.17281081 0.37734416
vn 0.919062 -0.10184769 0.38072568
vn 0.919062 -0.10184769 -0.38072568
vn 0.99480075 -0.1018409 0.0
vn 0.98491985 -0.17301095 -0.0003
vn 0.90994817 -0.17311771 -0.37686136
vn -0.37679994 -0.91305447 -0.15605554
vn -0.21542153 -0.97243875 -0.08919876
vn -0.23317978 -0.9724336 0.0
vn -0.40788183 -0.91303474 0.0
vn 0.70343006 -0.10184516 -0.70343006
vn 0.6964298 -0.1731218 -0.6964298
vn -0.80698776 -0.23074006 0.5436265
vn -0.82076424 -0.15426804 0.55004305
vn -0.90980643 -0.17281081 0.37734416
vn -0.9174335 -0.23513076 0.32098168
vn -0.21542153 -0.97243875 0.08919876
vn -0.38241622 -0.034679167 -0.9233392
vn -0.16485299 -0.97244376 -0.16485299
vn -0.70668155 -0.034676787 -0.70668155
vn -0.7057076 -0.062878914 -0.7057076
vn -0.922053 -0.06288185 -0.38192195
vn -0.9233392 -0.034679167 -0.38241622
vn -0.70477057 -0.08122171 -0.70477057
vn -0.92083025 -0.08121624 -0.38141254
vn -0.9980211 -0.06287957 0.0
vn -0.9993986 -0.034677647 0.0
vn -0.70668155 -0.034676787 0.70668155
vn -0.38241622 -0.034679167 0.9233392
vn -0.98491985 -0.17301095 -0.0003
vn -0.97182024 -0.2357222 -0.0006001
vn -0.954428 -0.23133953 0.18854503
vn -0.99480075 -0.1018409 0.0
vn -0.38141254 -0.08121624 0.92083025
vn -0.92083025 -0.08121624 0.38141254
vn -0.70477057 -0.08122171 0.70477057
vn -0.28834882 -0.9130771 -0.28834882
vn -0.08919876 -0.97243875 -0.21542153
vn -0.7696868 -0.11171861 0.62857085
vn -0.919062 -0.10184769 -0.38072568
vn -0.9966961 -0.0812214 0.0
vn -0.9233392 -0.034679167 0.38241622
vn -0.15605554 -0.91305447 -0.37679994
vn -0.70343006 -0.10184516 -0.70343006
vn 0.954428 -0.23133953 0.18854503
vn 0.97182024 -0.2357222 -0.0006001
vn 0.9174335 -0.23513076 0.32098168
vn 0.897821 -0.2358265 -0.37189153
vn 0.80698776 -0.23074006 0.5436265
vn -0.19701687 -0.09806256 0.9754835
vn 0.37189153 -0.2358265 -0.897821
vn 0.68716323 -0.2358245 -0.68716323
vn -0.37679994 -0.91305447 0.15605554
vn 0.5518052 -0.09177717 0.8289077
vn 0.42009616 -0.09596068 0.90239173
vn 0.19701687 -0.09806256 0.9754835
vn -0.5569954 -0.49200386 0.6690951
vn -0.5553058 -0.46081263 0.6923058
vn -0.55714726 -0.69044286 0.46138442
vn -0.5547324 -0.72469753 0.40876076
vn 0.14759874 -0.86659294 0.47668776
vn 0.15601273 -0.86374676 0.47916767
vn 0.07179862 -0.8866343 0.45686382
vn 0.07149627 -0.8867153 0.45675388
vn 0.3960199 -0.7137847 0.5776501
vn 0.39581746 -0.7139805 0.57754683
vn 0.31317496 -0.77783895 0.5448743
vn 0.28734714 -0.79549223 0.5335015
vn -0.5361295 -0.8132033 0.22641921
vn -0.53416455 -0.8188574 0.21009739
vn -0.28734714 -0.79549223 0.5335015
vn -0.31317496 -0.77783895 0.5448743
vn -0.39581746 -0.7139805 0.57754683
vn -0.3960199 -0.7137847 0.5776501
vn -0.5077287 -0.8612243 0.022458771
vn -0.50795203 -0.861063 0.023562716
vn 0.5569954 -0.49200386 0.6690951
vn 0.5553058 -0.46081263 0.6923058
vn 0.5220977 -0.44636688 0.72675353
vn 0.5202234 -0.45586452 0.7221877
vn 0.43069136 -0.88393617 0.18210374
vn 0.43431327 -0.8836607 0.174688
vn 0.48022228 -0.87713015 -0.00541491
vn 0.47959432 -0.87748164 0.0039105536
vn 0.4413771 -0.6512057 0.61734706
vn 0.44932973 -0.6392445 0.62407464
vn -0.3219895 -0.8890292 0.32549924
vn -0.32641637 -0.88886917 0.32150254
vn -0.1744952 -0.8921943 0.41658226
vn -0.17159437 -0.89223266 0.4177034
vn 0.0 -0.893333 0.4493952
vn 0.1744952 -0.8921943 0.41658226
vn 0.17159437 -0.89223266 0.4177034
vn -0.48022228 -0.87713015 -0.00541491
vn -0.47959432 -0.87748164 0.0039105536
vn 0.32641637 -0.88886917 0.32150254
vn 0.3219895 -0.8890292 0.32549924
vn -0.07149627 -0.8867153 0.45675388
vn -0.07179862 -0.8866343 0.45686382
vn -0.15601273 -0.86374676 0.47916767
vn -0.14759874 -0.86659294 0.47668776
vn 0.5077287 -0.8612243 0.022458771
vn 0.50795203 -0.861063 0.023562716
vn 0.5361295 -0.8132033 0.22641921
vn 0.53416455 -0.8188574 0.21009739
vn -0.4413771 -0.6512057 0.61734706
vn -0.44932973 -0.6392445 0.62407464
vn -0.5220977 -0.44636688 0.72675353
vn -0.5202234 -0.45586452 0.7221877
vn 0.55714726 -0.69044286 0.46138442
vn 0.5547324 -0.72469753 0.40876076
vn -0.43069136 -0.88393617 0.18210374
vn -0.43431327 -0.8836607 0.174688
f 135//149 136//150 137//150
f 135//149 137//150 138//149
f 139//151 135//149 138//149
f 139//151 138//149 140//151
f 141//152 139//151 140//151
f 141//152 140//151 142//152
f 143//153 144//154 145//154
f 143//153 145//154 146//153
f 144//154 141//152 142//152
f 144//154 142//152 145//154
f 147//155 143//153 146//153
f 147//155 146//153 148//155
f 149//156 147//155 148//155
f 149//156 148//155 150//156
f 151//157 149//156 150//156
f 151//157 150//156 152//157
f 152//158 150//159 153//160
f 152//158 153//160 154//161
f 138//162 137//163 155//164
f 138//162 155//164 156//165
f 140//166 138//162 156//165
f 140//166 156//165 157//167
f 142//168 140//166 157//167
f 142//168 157//167 158//169
f 146//170 145//171 159//172
f 146//170 159//172 160//173
f 145//171 142//168 158//169
f 145//171 158//169 159//172
f 148//174 146//170 160//173
f 148//174 160//173 161//175
f 150//159 148//174 161//175
f 150//159 161//175 153//160
f 159//172 158//169 162//176
f 159//172 162//176 163//176
f 164//177 165//178 166//179
f 164//177 166//179 167//180
f 161//175 160//173 168//176
f 161//175 168//176 169//176
f 153//160 161//175 169//176
f 153//160 169//176 170//176
f 171//181 172//182 173//183
f 171//181 173//183 174//184
f 154//161 153//160 170//176
f 154//161 170//176 175//176
f 156//165 155//164 176//176
f 156//165 176//176 177//176
f 157//167 156//165 177//176
f 157//167 177//176 178//176
f 158//169 157//167 178//176
f 158//169 178//176 162//176
f 160//173 159//172 163//176
f 160//173 163//176 168//176
f 178//185 177//186 179//187
f 178//185 179//187 180//188
f 162//189 178//185 180//188
f 162//189 180//188 181//190
f 168//191 163//192 182//193
f 168//191 182//193 183//194
f 163//192 162//189 181//190
f 163//192 181//190 182//193
f 169//195 168//191 183//194
f 169//195 183//194 184//196
f 170//197 169//195 184//196
f 170//197 184//196 185//198
f 186//199 187//200 188//201
f 186//199 188//201 189//202
f 175//203 170//197 185//198
f 175//203 185//198 190//204
f 190//204 191//205 192//206
f 190//204 192//206 193//207
f 194//208 195//209 189//202
f 196//210 194//208 189//202
f 196//210 189//202 188//201
f 196//210 188//201 197//211
f 177//186 176//212 198//213
f 177//186 198//213 179//187
f 191//205 199//214 200//215
f 191//205 200//215 164//177
f 201//216 202//217 203//218
f 201//216 203//218 204//219
f 151//157 152//157 205//220
f 151//157 205//220 206//220
f 207//221 208//222 209//223
f 210//224 211//225 212//226
f 210//224 212//226 207//221
f 210//224 207//221 209//223
f 213//227 214//228 215//229
f 213//227 215//229 216//230
f 214//228 212//226 211//225
f 214//228 211//225 215//229
f 217//231 218//232 219//233
f 217//231 219//233 220//234
f 221//235 213//227 216//230
f 221//235 216//230 222//236
f 174//184 173//183 155//164
f 174//184 155//164 137//163
f 199//214 221//235 222//236
f 199//214 222//236 200//215
f 223//237 224//238 225//239
f 223//237 225//239 226//240
f 223//237 226//240 227//237
f 219//233 228//176 229//176
f 219//233 229//176 230//241
f 175//203 190//204 193//207
f 175//203 193//207 231//242
f 232//243 233//176 234//176
f 232//243 234//176 218//232
f 233//244 235//245 236//246
f 233//244 236//246 234//247
f 237//248 238//248 217//249
f 237//248 217//249 239//249
f 234//247 236//246 240//250
f 234//247 240//250 228//251
f 241//252 189//202 195//209
f 241//252 195//209 242//253
f 226//240 225//239 243//254
f 226//240 243//254 244//255
f 226//240 244//255 245//256
f 246//257 243//254 225//239
f 246//257 225//239 187//200
f 247//258 174//258 137//150
f 247//258 137//150 136//150
f 173//183 242//176 176//176
f 173//183 176//176 155//164
f 248//259 249//259 171//260
f 248//259 171//260 250//260
f 238//261 232//243 218//232
f 238//261 218//232 217//231
f 154//161 175//176 231//176
f 154//161 231//176 251//262
f 252//263 188//201 187//200
f 252//263 187//200 225//239
f 252//263 225//239 224//238
f 188//201 252//263 197//211
f 172//182 241//176 242//176
f 172//182 242//176 173//183
f 251//262 231//176 233//176
f 251//262 233//176 232//243
f 250//260 171//260 174//258
f 250//260 174//258 247//258
f 206//220 205//220 238//248
f 206//220 238//248 237//248
f 253//264 204//219 243//254
f 253//264 243//254 246//257
f 191//205 164//177 167//180
f 191//205 167//180 192//206
f 230//241 229//176 241//176
f 230//241 241//176 172//182
f 242//253 195//209 198//213
f 242//253 198//213 176//212
f 218//232 234//176 228//176
f 218//232 228//176 219//233
f 231//242 193//207 235//245
f 231//242 235//245 233//244
f 239//249 217//249 220//265
f 239//249 220//265 254//265
f 228//251 240//250 186//199
f 228//251 186//199 229//266
f 152//158 154//161 251//262
f 152//158 251//262 205//267
f 255//268 201//216 204//219
f 255//268 204//219 253//264
f 192//206 167//180 201//216
f 192//206 201//216 255//268
f 229//266 186//199 189//202
f 229//266 189//202 241//252
f 256//269 257//270 215//229
f 256//269 215//229 211//225
f 256//269 211//225 258//271
f 216//230 215//229 257//270
f 216//230 257//270 259//272
f 260//273 258//271 211//225
f 260//273 211//225 210//224
f 260//273 210//224 261//273
f 240//250 246//257 187//200
f 240//250 187//200 186//199
f 204//219 203//218 244//255
f 204//219 244//255 243//254
f 236//246 253//264 246//257
f 236//246 246//257 240//250
f 254//265 220//265 249//259
f 254//265 249//259 248//259
f 195//209 194//208 262//274
f 195//209 262//274 198//213
f 193//207 192//206 255//268
f 193//207 255//268 235//245
f 164//177 200//215 263//275
f 164//177 263//275 165//178
f 235//245 255//268 253//264
f 235//245 253//264 236//246
f 200//215 222//236 264//276
f 200//215 264//276 263//275
f 249//277 230//241 172//182
f 249//277 172//182 171//181
f 222//236 216//230 259//272
f 222//236 259//272 264//276
f 167//180 166//179 202//217
f 167//180 202//217 201//216
f 185//198 184//196 221//235
f 185//198 221//235 199//214
f 184//196 183//194 213//227
f 184//196 213//227 221//235
f 182//193 181//190 212//226
f 182//193 212//226 214//228
f 183//194 182//193 214//228
f 183//194 214//228 213//227
f 181//190 180//188 207//221
f 181//190 207//221 212//226
f 208//222 207//221 180//188
f 265//278 208//222 180//188
f 265//278 180//188 179//187
f 265//278 179//187 266//279
f 179//187 198//213 267//280
f 179//187 267//280 266//279
f 190//204 185//198 199//214
f 190//204 199//214 191//205
f 220//234 219//233 230//241
f 220//234 230//241 249//277
f 205//267 251//262 232//243
f 205//267 232//243 238//261
f 261//281 268//282 269//283
f 261//281 269//283 260//284
f 194//285 270//286 271//287
f 194//285 271//287 262//288
f 197//289 272//290 273//291
f 197//289 273//291 196//292
f 196//292 273//291 270//286
f 196//292 270//286 194//285
f 260//284 269//283 274//293
f 260//284 274//293 258//294
f 265//295 275//296 276//297
f 265//295 276//297 208//298
f 258//294 274//293 277//299
f 258//294 277//299 256//300
f 223//301 278//302 279//303
f 223//301 279//303 224//304
f 203//305 280//306 281//307
f 203//305 281//307 244//308
f 252//309 282//310 272//290
f 252//309 272//290 197//289
f 264//311 283//312 284//313
f 264//311 284//313 263//314
f 165//315 285//315 286//316
f 165//315 286//316 166//317
f 256//300 277//299 287//318
f 256//300 287//318 257//319
f 166//317 286//316 288//320
f 166//317 288//320 202//321
f 267//322 289//323 290//324
f 267//322 290//324 266//325
f 244//308 281//307 291//326
f 244//308 291//326 245//327
f 245//327 291//326 292//328
f 245//327 292//328 226//329
f 209//330 293//331 294//332
f 209//330 294//332 210//333
f 226//329 292//328 295//334
f 226//329 295//334 227//335
f 259//336 296//337 283//312
f 259//336 283//312 264//311
f 202//321 288//320 280//306
f 202//321 280//306 203//305
f 266//325 290//324 275//296
f 266//325 275//296 265//295
f 263//314 284//313 285//315
f 263//314 285//315 165//315
f 224//304 279//303 282//310
f 224//304 282//310 252//309
f 262//288 271//287 297//315
f 262//288 297//315 198//315
f 257//319 287//318 296//337
f 257//319 296//337 259//336
f 210//333 294//332 268//282
f 210//333 268//282 261//281
f 208//298 276//297 293//331
f 208//298 293//331 209//330
f 227//335 295//334 278//302
f 227//335 278//302 223//301
f 198//315 297//315 289//323
f 198//315 289//323 267//322
f 139//1 141//1 144//1
f 139//1 144//1 143//1
f 139//1 143//1 147//1
f 139//1 147//1 149//1
f 139//1 149//1 151//1
f 139//1 151//1 206//1
f 139//1 206//1 237//1
f 139//1 237//1 239//1
f 139//1 239//1 254//1
f 139//1 254//1 248//1
f 139//1 248//1 250//1
f 139//1 250//1 247//1
f 139//1 247//1 136//1
f 139//1 136//1 135//1
