# 
# Generated by Sweet Home 3D - vie jul 10 21:48:52 COT 2020
# http://www.sweethome3d.com/
# 

newmtl ground_1
illum 1
Ka 0.65882355 0.65882355 0.65882355
Kd 0.65882355 0.65882355 0.65882355
Ks 0.0 0.0 0.0
Ns 1.0
Ni 1
d 1.0

newmtl whiteplastic
illum 2
Ka 1.0 1.0 1.0
Kd 0.662045 0.662045 0.662045
Ks 0.158537 0.158537 0.158537
Ns 47.058823
Ni 1.0

newmtl eyetexture
illum 2
Ka 0.2 0.2 0.2
Kd 1.0 1.0 1.0
Ks 0.239837 0.239837 0.239837
Ns 72.54902
Ni 1.0
map_Kd camara_eyetexture.jpeg
