# 
# Generated by Sweet Home 3D - mar ago 18 21:17:29 COT 2020
# http://www.sweethome3d.com/
# 

newmtl ground_1
illum 1
Ka 0.65882355 0.65882355 0.65882355
Kd 0.65882355 0.65882355 0.65882355
Ks 0.0 0.0 0.0
Ns 1.0
Ni 1
d 1.0

newmtl mattblack
illum 2
Ka 0.0 0.0 0.0
Kd 0.0 0.0 0.0
Ks 0.4 0.4 0.4
Ns 4.0

newmtl metallic
illum 2
Ka 0.0 0.0 0.0
Kd 0.1856 0.1856 0.1856
Ks 0.4582 0.4582 0.4582
Ns 1.0

newmtl offwhite
illum 2
Ka 0.0 0.0 0.0
Kd 0.92 0.86922 0.8096
Ks 0.84 0.84 0.84
Ns 75.0

newmtl panel
illum 1
Ka 0.2 0.2 0.2
Kd 1.0 1.0 1.0
Ks 0.0 0.0 0.0
Ns 1.0
map_Kd cocinaaa_panel.jpeg

newmtl shinyblack
illum 2
Ka 0.0 0.0 0.0
Kd 0.0 0.0 0.0
Ks 0.64 0.64 0.64
Ns 22.0

newmtl dullmetal
illum 2
Ka 0.0 0.0 0.0
Kd 0.51 0.4641 0.4641
Ks 0.34 0.34 0.34
Ns 18.0

newmtl transparentblack
illum 2
Ka 0.0 0.0 0.0
Kd 0.0 0.0 0.0
Ks 0.0396 0.0396 0.0396
Ns 1.0
d 0.9
