# 
# Generated by Sweet Home 3D - vie jul 10 18:45:25 COT 2020
# http://www.sweethome3d.com/
# 

newmtl ground_1
illum 1
Ka 0.65882355 0.65882355 0.65882355
Kd 0.65882355 0.65882355 0.65882355
Ks 0.0 0.0 0.0
Ns 1.0
Ni 1
d 1.0

newmtl holes
illum 2
Ka 0.2 0.2 0.2
Kd 1.0 1.0 1.0
Ks 0.5 0.5 0.5
Ns 96.07843
Ni 1.0
d 1.0
map_Kd urinario_holes.png

newmtl whiteceramic
illum 2
Ka 1.0 1.0 1.0
Kd 0.651228 0.651228 0.651228
Ks 0.5 0.5 0.5
Ns 96.07843
Ni 1.0

newmtl greypvc
illum 2
Ka 1.0 1.0 1.0
Kd 0.219062 0.219062 0.219062
Ks 0.163866 0.163866 0.163866
Ns 52.941177
Ni 1.0

newmtl metal
illum 2
Ka 1.0 1.0 1.0
Kd 0.300596 0.300596 0.300596
Ks 0.718487 0.718487 0.718487
Ns 128.0
Ni 1.0
